DSCI 522 Milestone 1
…
Rows: 320 Columns: 6
── Column specification ────────────────────────────────────────────────────────
Delimiter: ","
chr  (3): prod_type, prod_process, source
dbl  (2): n_hens, n_eggs
date (1): observed_month

ℹ Use `spec()` to retrieve the full column specification for this data.
ℹ Specify the column types or set `show_col_types = FALSE` to quiet this message.

egg_prod

# A tibble: 320 × 6
   observed_month prod_type     prod_process   n_hens     n_eggs source         
   <date>         <chr>         <chr>           <dbl>      <dbl> <chr>          
 1 2016-07-31     hatching eggs all          57975000 1147000000 ChicEggs-09-23…
 2 2016-08-31     hatching eggs all          57595000 1142700000 ChicEggs-10-21…
 3 2016-09-30     hatching eggs all          57161000 1093300000 ChicEggs-11-22…
 4 2016-10-31     hatching eggs all          56857000 1126700000 ChicEggs-12-23…
 5 2016-11-30     hatching eggs all          57116000 1096600000 ChicEggs-01-24…
 6 2016-12-31     hatching eggs all          57750000 1132900000 ChicEggs-02-28…
 7 2017-01-31     hatching eggs all          57991000 1123400000 ChicEggs-03-21…
 8 2017-02-28     hatching eggs all          58286000 1014500000 ChicEggs-04-21…
 9 2017-03-31     hatching eggs all          58735000 1128500000 ChicEggs-05-22…
10 2017-04-30     hatching eggs all          59072000 1097200000 ChicEggs-06-23…
# ℹ 310 more rows
…
With these hypotheses and observed test statistic in place, we could conduct our hypothesis test using the permutation method to draw conclusions about the potential differences in egg production between the two types.

In our data wrangling phase, we calculated the mean number of eggs produced per hen, recognizing that the total number of eggs depends on the number of hens involved.

Additionally, it is important to note that the “cage-free” production process is only applicable to table eggs, not hatching eggs. To ensure an fair and accurate comparison between hatching and table eggs, we filtered the dataset to include only entries where the “prod_process” variable was labeled as “all”.

# create a new column to calculate the mean number of eggs produced by each hen
# Since cage-free is only available for table eggs, we filter the prod_process is equal to all 
egg_prod <- egg_prod |>
  filter(prod_process == "all") |>
  mutate(n_egg_by_hen = n_eggs / n_hens)
egg_prod

# A tibble: 160 × 7
   observed_month prod_type     prod_process   n_hens n_eggs source n_egg_by_hen
   <date>         <chr>         <chr>           <dbl>  <dbl> <chr>         <dbl>
 1 2016-07-31     hatching eggs all          57975000 1.15e9 ChicE…         19.8
 2 2016-08-31     hatching eggs all          57595000 1.14e9 ChicE…         19.8
 3 2016-09-30     hatching eggs all          57161000 1.09e9 ChicE…         19.1
 4 2016-10-31     hatching eggs all          56857000 1.13e9 ChicE…         19.8
 5 2016-11-30     hatching eggs all          57116000 1.10e9 ChicE…         19.2
 6 2016-12-31     hatching eggs all          57750000 1.13e9 ChicE…         19.6
 7 2017-01-31     hatching eggs all          57991000 1.12e9 ChicE…         19.4
 8 2017-02-28     hatching eggs all          58286000 1.01e9 ChicE…         17.4
 9 2017-03-31     hatching eggs all          58735000 1.13e9 ChicE…         19.2
10 2017-04-30     hatching eggs all          59072000 1.10e9 ChicE…         18.6
# ℹ 150 more rows
…
